<?xml version="1.0" encoding="utf-8"?>
<!-- Generator: Adobe Illustrator 15.0.0, SVG Export Plug-In . SVG Version: 6.00 Build 0)  -->
<!DOCTYPE svg PUBLIC "-//W3C//DTD SVG 1.1//EN" "http://www.w3.org/Graphics/SVG/1.1/DTD/svg11.dtd">
<svg version="1.1" id="Layer_1" xmlns="http://www.w3.org/2000/svg" xmlns:xlink="http://www.w3.org/1999/xlink"  viewBox="87.844 0 1139.741 546.541" enable-background="new 87.844 0 1139.741 546.541"
	 xml:space="preserve">
<path fill="#486E37" d="M754.375,0C602.108,0,478.683,123.432,478.683,275.69c0,134.566,96.423,246.633,223.956,270.85h103.473
	c127.531-24.217,223.953-136.283,223.953-270.85C1030.064,123.432,906.638,0,754.375,0z M902.505,444.143
	c-92.84,81.741-234.363,72.73-316.091-20.1c-81.736-92.838-72.74-234.352,20.101-316.089
	c42.096-37.062,94.196-55.469,146.194-55.864v-0.75c84.758,0.022,158.635,46.387,197.82,115.092l-0.508,0.293
	C1000.546,256.872,983.207,373.09,902.505,444.143z"/>
<line fill="none" stroke="#D9D9D9" stroke-width="5" stroke-miterlimit="10" x1="132.354" y1="284.621" x2="752.654" y2="284.621"/>
<path id="black_36_" fill="#000100" d="M640.242,146.261c71.682-63.112,180.947-56.162,244.057,15.517
	c63.107,71.682,56.152,180.941-15.525,244.051c-71.682,63.111-180.941,56.17-244.051-15.51
	C561.613,318.639,568.561,209.37,640.242,146.261z"/>
<path id="note_69_" fill="#C7C6C6" d="M606.515,107.954c92.842-81.741,234.354-72.738,316.088,20.099
	c81.732,92.83,72.742,234.35-20.098,316.089c-92.84,81.741-234.363,72.73-316.091-20.1
	C504.679,331.205,513.674,189.691,606.515,107.954z"/>
<path id="node_36_" fill="#333333" d="M639.964,145.951c71.85-63.256,181.381-56.298,244.641,15.557
	c63.256,71.843,56.287,181.378-15.561,244.637c-71.85,63.261-181.373,56.287-244.627-15.561
	C561.155,318.732,568.114,209.208,639.964,145.951z"/>
<path fill="#333333" d="M752.708,51.339l-0.068,229.486l197.891-114.394C911.343,97.727,837.466,51.361,752.708,51.339z"/>
<path id="nodepoint_71_" fill="#D1D1D1" d="M727.833,245.751c16.729-14.727,42.236-13.106,56.965,3.624
	c14.732,16.734,13.104,42.234-3.623,56.962c-16.727,14.727-42.232,13.11-56.963-3.618
	C709.482,285.984,711.107,260.48,727.833,245.751z"/>
<path id="nodepoint_70_" fill="#D1D1D1" d="M754.375,235.326c22.287,0,40.359,18.068,40.359,40.363
	c0,22.291-18.072,40.355-40.359,40.355c-22.285,0-40.361-18.065-40.361-40.355C714.011,253.394,732.087,235.326,754.375,235.326z"/>
<path id="nodepoint_73_" fill="#8C484C" d="M130.446,240.465c22.286,0,40.36,18.068,40.36,40.363
	c0,22.291-18.074,40.355-40.36,40.355c-22.286,0-40.362-18.064-40.362-40.355C90.084,258.534,108.16,240.465,130.446,240.465z"/>
<g>
	<path fill="#B1B1B1" d="M459.718,507.177c15.434-12.982,33.994-19.476,55.681-19.476c21.686,0,42.104,9.213,61.26,27.642V401.005
		c-16.622-7.539-34.034-11.308-52.238-11.308c-58.456,0-101.59,34.343-129.405,103.028l-3.562,22.616V401.005h-83.104V546.54H426
		C435.389,531.31,446.627,518.188,459.718,507.177z"/>
</g>
<g>
	<rect x="87.844" y="405.936" fill="#B1B1B1" width="83.105" height="140.604"/>
	<polygon fill="#B1B1B1" points="795.402,401.005 712.296,401.005 712.234,546.54 795.337,546.54 	"/>
	<path fill="#B1B1B1" d="M1160.751,422.807c-33.842-22.071-75.941-33.108-126.301-33.108c-50.469,0-94,14.152-130.598,42.46
		c-34.15,26.417-52.305,64.551-54.48,114.383h88.168c-0.355-3.43-0.547-6.997-0.547-10.726c0-24.894,9.492-43.354,28.479-55.386
		c18.566-11.905,40.781-17.857,66.648-17.857c25.84,0,47.785,5.072,65.832,15.22c18.215,10.109,31.734,30.583,40.561,61.425h89.072
		C1216.39,483.368,1194.113,444.565,1160.751,422.807z"/>
</g>
</svg>
